<svg width="273" height="71" viewBox="0 0 273 71" version="1.1" xmlns="http://www.w3.org/2000/svg" xmlns:xlink="http://www.w3.org/1999/xlink">
    <g id="Canvas" fill="none">
        <g id="logo">
            <g id="Group">
                <path id="Vector" d="M 23.8404 21.5663C 23.7508 21.4775 23.6612 21.3888 23.4819 21.3888L 7.88706 21.3888C 7.70781 21.3888 7.61819 21.4775 7.52856 21.5663L 4.39166 28.2225C 4.30204 28.3113 4.2124 28.4 4.03315 28.4L 0.358506 28.4C 0.179254 28.4 -5.47032e-06 28.2225 -5.47032e-06 28.045C -5.47032e-06 27.9563 0.26888 27.335 13.3542 0.1775C 13.4439 0.0887503 13.5335 -3.38554e-07 13.7127 -3.38554e-07L 17.5666 -3.38554e-07C 17.7459 -3.38554e-07 17.8355 0.0887503 17.9251 0.1775L 31.2794 27.8675C 31.369 28.1338 31.1898 28.4 30.9209 28.4L 27.1566 28.4C 26.9773 28.4 26.8877 28.3113 26.7981 28.2225L 23.8404 21.5663ZM 21.5998 18.105C 21.7791 18.105 21.9583 17.9275 21.9583 17.75C 21.9583 17.6613 22.3168 18.46 15.9534 4.88125C 15.8638 4.615 15.4156 4.615 15.326 4.88125C 8.96257 18.5487 9.32108 17.6613 9.32108 17.75C 9.32108 17.9275 9.50033 18.105 9.67958 18.105L 21.5998 18.105ZM 63.2758 0.08875C 63.455 0.08875 63.6343 0.26625 63.6343 0.44375L 63.6343 28.1337C 63.6343 28.3112 63.455 28.4887 63.2758 28.4887L 60.2285 28.4887C 60.1389 28.4887 60.0492 28.4 59.9596 28.4L 42.6618 8.07625C 42.4826 7.81 42.0345 7.9875 42.0345 8.3425L 42.0345 28.2225C 42.0345 28.4 41.8552 28.5775 41.676 28.5775L 38.0909 28.5775C 37.9117 28.5775 37.7324 28.4 37.7324 28.2225L 37.7324 0.44375C 37.7324 0.26625 37.9117 0.08875 38.0909 0.08875L 41.1382 0.08875C 41.2278 0.08875 41.3175 0.1775 41.4071 0.1775L 58.7049 20.5013C 58.8841 20.7675 59.3322 20.59 59.3322 20.235L 59.3322 0.44375C 59.3322 0.26625 59.5115 0.08875 59.6907 0.08875L 63.2758 0.08875ZM 72.2383 0.44375C 72.2383 0.26625 72.4176 0.08875 72.5968 0.08875L 83.6208 0.08875C 93.2108 0.08875 98.2298 6.745 98.2298 14.2888C 98.2298 22.72 92.3145 28.4887 83.6208 28.4887L 72.5968 28.4887C 72.4176 28.4887 72.2383 28.3112 72.2383 28.1337L 72.2383 0.44375ZM 83.3519 24.9388C 89.8946 24.9388 94.2863 20.7675 94.2863 14.2888C 94.2863 7.72125 89.805 3.63875 83.3519 3.63875L 76.4508 3.63875C 76.2715 3.63875 76.0923 3.81625 76.0923 3.99375L 76.0923 24.5837C 76.0923 24.7612 76.2715 24.9388 76.4508 24.9388L 83.3519 24.9388ZM 126.731 24.9388C 126.91 24.9388 127.089 25.1163 127.089 25.2938L 127.089 28.1337C 127.089 28.3112 126.91 28.4887 126.731 28.4887L 105.579 28.4887C 105.4 28.4887 105.221 28.3112 105.221 28.1337L 105.221 0.44375C 105.221 0.26625 105.4 0.08875 105.579 0.08875L 126.193 0.08875C 126.372 0.08875 126.552 0.26625 126.552 0.44375L 126.552 3.28375C 126.552 3.46125 126.372 3.63875 126.193 3.63875L 109.971 3.63875C 109.792 3.63875 109.612 3.81625 109.612 3.99375L 109.612 11.9813C 109.612 12.1588 109.792 12.3363 109.971 12.3363L 124.401 12.3363C 124.58 12.3363 124.759 12.5138 124.759 12.6913L 124.759 15.4425C 124.759 15.62 124.58 15.7975 124.401 15.7975L 109.971 15.7975C 109.792 15.7975 109.612 15.975 109.612 16.1525L 109.612 24.5837C 109.612 24.7612 109.792 24.9388 109.971 24.9388L 126.731 24.9388ZM 149.944 28.4887C 149.854 28.4887 149.675 28.4 149.675 28.3113L 144.208 19.9688C 143.939 19.88 142.415 19.88 142.415 19.88L 136.231 19.88C 136.052 19.88 135.873 20.0575 135.873 20.235L 135.873 28.1337C 135.873 28.3112 135.693 28.4887 135.514 28.4887L 132.467 28.4887C 132.288 28.4887 132.108 28.3112 132.108 28.1337L 132.108 0.44375C 132.108 0.26625 132.288 0.08875 132.467 0.08875L 142.505 0.08875C 147.882 0.08875 153.619 2.57375 153.619 10.0288C 153.619 17.395 147.972 18.5487 147.972 19.17C 147.972 19.2588 147.972 19.3475 148.062 19.3475L 153.798 27.9563C 153.798 28.045 153.887 28.045 153.887 28.1337C 153.887 28.3112 153.708 28.4887 153.529 28.4887L 149.944 28.4887ZM 142.236 16.4188C 145.911 16.4188 149.675 14.9988 149.675 10.0288C 149.675 4.97 145.911 3.63875 142.236 3.63875L 136.141 3.63875C 135.962 3.63875 135.783 3.81625 135.783 3.99375L 135.783 16.0638C 135.783 16.2413 135.962 16.4188 136.141 16.4188L 142.236 16.4188Z" transform="translate(119.113 21.2114)" fill="white"/>
                <path id="Vector_2" d="M 6.99081 14.1113C 6.2738 12.8688 2.73516e-06 0.355001 2.73516e-06 0.177501C 2.73516e-06 6.74464e-07 -2.7779e-06 0 3.04727 0C 3.31615 0 3.49541 0.0887497 3.67466 0.355C 8.96258 10.9163 8.6937 10.295 8.6937 10.5613C 8.78332 10.8275 7.17006 13.845 6.99081 14.1113Z" transform="translate(95.7203 21.3)" fill="white"/>
                <path id="Vector_3" d="M 1.79252 15.8863C 2.68878 17.5725 3.58503 19.2588 4.48129 21.0338C 14.6986 1.15375 14.7883 -6.77109e-07 15.5053 -6.77109e-07C 15.5949 -6.77109e-07 18.2836 -6.77109e-07 18.4629 -6.77109e-07C 18.6422 -6.77109e-07 18.6422 0.08875 18.6422 0.1775C 18.6422 0.26625 4.57092 28.2225 4.48129 28.2225C 4.39166 28.2225 2.73516e-06 19.7025 2.73516e-06 19.6138C 0.0896285 19.3475 1.79252 15.975 1.79252 15.8863Z" transform="translate(105.131 21.5662)" fill="white"/>
                <path id="Vector_4" d="M 2.73516e-06 0.177501C 2.73516e-06 6.74464e-07 0.0896244 0 2.95765 0C 4.12278 0 13.7127 21.0338 14.2505 21.0338C 14.3401 21.0338 25.0056 0.44375 25.0952 0.355C 25.4537 0.26625 28.4114 0.177501 28.4114 0.177501C 28.4114 0.355001 14.5194 27.6013 14.1609 28.1338C 13.892 27.8675 2.73516e-06 0.266251 2.73516e-06 0.177501Z" transform="translate(85.8615 21.3)" fill="white"/>
                <path id="Vector_5" d="M 35.8503 71C 55.6576 71 71.7006 55.1138 71.7006 35.5C 71.7006 15.8862 55.6576 0 35.8503 0C 16.043 0 0 15.8862 0 35.5C 0 55.1138 16.043 71 35.8503 71ZM 35.8503 2.6625C 54.1339 2.6625 69.0118 17.395 69.0118 35.5C 69.0118 53.605 54.1339 68.3375 35.8503 68.3375C 17.5666 68.3375 2.68877 53.605 2.68877 35.5C 2.68877 17.395 17.5666 2.6625 35.8503 2.6625Z" fill="white"/>
                <path id="Vector_6" d="M 2.50952 4.97C 1.07551 4.97 -3.41895e-07 3.905 -3.41895e-07 2.485C -3.41895e-07 1.15375 1.16513 6.77109e-07 2.50952 6.77109e-07C 3.85391 6.77109e-07 5.01904 1.15375 5.01904 2.485C 5.01904 3.81625 3.94353 4.97 2.50952 4.97Z" transform="translate(7.52856 32.5715)" fill="white"/>
                <path id="Vector_7" d="M 5.01904 2.485C 5.01904 3.905 3.94354 4.97 2.50952 4.97C 1.16514 4.97 0 3.81625 0 2.485C 0 1.15375 1.16514 6.77109e-07 2.50952 6.77109e-07C 3.94354 6.77109e-07 5.01904 1.065 5.01904 2.485Z" transform="translate(59.153 33.0154)" fill="white"/>
                <path id="path2 fill 2" d="M 8.75089 17.4838C 8.57164 17.1288 8.30277 16.7737 8.12352 16.33C 5.43474 11.0937 2.83559 5.76875 0.146821 0.532499C -0.122056 -6.87689e-07 -0.0324306 6.77109e-07 0.505324 6.77109e-07C 1.58083 6.77109e-07 2.74597 6.77109e-07 3.82148 6.77109e-07C 4.17998 6.77109e-07 4.44886 0.177501 4.62811 0.443751C 6.6895 4.52625 8.75089 8.60875 10.8123 12.6913C 10.9019 12.9575 10.9915 13.135 10.8123 13.4012C 10.1849 14.6438 9.55753 15.975 8.84052 17.2175C 8.84052 17.3062 8.75089 17.395 8.75089 17.4838Z" transform="translate(24.9484 21.0339)" fill="white"/>
                <path id="Vector_8" d="M 2.03899 19.7956C 3.11449 21.9256 4.27963 23.9669 5.35514 26.1856C 5.62402 25.6531 5.89289 25.1206 6.16177 24.5881C 9.83643 17.3106 13.5111 10.0331 17.1857 2.75563C 17.5442 1.95688 17.9924 1.24688 18.3509 0.448133C 18.4405 0.181883 18.7094 0.00438272 18.9783 0.00438272C 20.1434 0.00438272 21.2189 0.00438272 22.384 0.00438272C 22.6529 0.00438272 23.101 -0.0843669 22.8322 0.536883C 20.4123 5.32938 18.082 10.0331 15.6621 14.8256C 13.3318 19.4406 11.0016 23.9669 8.76092 28.5819C 7.68541 30.6231 6.69952 32.7531 5.62402 34.7944C 5.53439 34.8831 5.53439 35.0606 5.44476 35.0606C 5.35514 35.0606 5.26551 34.9719 5.26551 34.8831C 3.56263 31.4219 1.77011 28.0494 0.067218 24.5881C -0.0224078 24.4106 -0.0224078 24.2331 0.067218 24.0556C 0.694598 22.7244 1.4116 21.3931 2.03899 20.1506C 1.94936 19.9731 1.94936 19.8844 2.03899 19.7956Z" transform="translate(36.7689 21.2957)" fill="white"/>
                <path id="Vector_9" d="M 17.5666 34.9675C 17.2081 34.6125 -1.70948e-07 0.355 -1.70948e-07 0.1775C -1.70948e-07 -3.43844e-07 2.13684e-07 6.77109e-07 3.4954 6.77109e-07C 4.21241 6.77109e-07 4.48129 0.0887497 4.75016 0.62125C 18.1044 27.335 17.477 26.0925 17.6563 26.0925C 17.7459 26.0925 28.7699 4.34875 28.7699 4.0825C 28.8595 3.81625 28.6802 3.905 28.1425 3.905C 19.4488 3.905 20.4347 3.905 20.345 3.905C 19.8073 3.905 19.4488 3.7275 19.1799 3.195C 18.4629 1.68625 17.7459 0.44375 17.7459 0.1775C 17.7459 -3.43844e-07 18.0148 6.77109e-07 19.8073 6.77109e-07C 22.9442 6.77109e-07 28.501 6.77109e-07 34.4163 6.77109e-07C 35.2229 6.77109e-07 35.2229 0.0887497 35.2229 0.1775C 35.1333 0.355 18.0148 34.1688 17.5666 34.9675Z" transform="translate(12.7268 21.0339)" fill="white"/>
            </g>
        </g>
    </g>
</svg>